{
    "token": "x",
    "cat_api_key": "x",
    "dog_api_key": "x",
    "prefix": "-",
    "embed_colour_info": [37, 130, 160],
    "embed_colour_success": [73, 229, 29],
    "embed_colour_error": [243, 33, 33]
}

